…
az_cog_state_age_sex
```

    ## # A tibble: 448 × 6
    ##    location_abbr location_desc age_group         sex_group n_obs mean_value
    ##    <chr>         <chr>         <chr>             <chr>     <int>      <dbl>
    ##  1 PR            Puerto Rico   50-64 years       Female        4       59.8
    ##  2 PR            Puerto Rico   50-64 years       Overall       8       58.2
    ##  3 PR            Puerto Rico   Overall           Male          4       54.5
    ##  4 PR            Puerto Rico   Overall           Overall       8       53.6
    ##  5 PR            Puerto Rico   Overall           Female        4       52.8
    ##  6 PR            Puerto Rico   65 years or older Overall       8       47.9
    ##  7 RI            Rhode Island  50-64 years       Female        4       47.2
    ##  8 OK            Oklahoma      50-64 years       Female        4       46.6
    ##  9 DE            Delaware      50-64 years       Female        4       46.1
    ## 10 PR            Puerto Rico   65 years or older Female        4       44.7
    ## # ℹ 438 more rows
…
